(module CLG225 (layer F.Cu) (tedit 5C800FDA)
  (fp_text reference REF** (at 10 -2) (layer F.SilkS)
    (effects (font (size 1 1) (thickness 0.15)))
  )
  (fp_text value CLG225 (at 9 -4) (layer F.Fab)
    (effects (font (size 1 1) (thickness 0.15)))
  )
  (fp_line (start -0.9 -0.9) (end 12.1 -0.9) (layer F.SilkS) (width 0.15))
  (fp_line (start 12.1 -0.9) (end 12.1 12.1) (layer F.SilkS) (width 0.15))
  (fp_line (start 12.1 12.1) (end -0.9 12.1) (layer F.SilkS) (width 0.15))
  (fp_line (start -0.9 12.1) (end -0.9 -0.9) (layer F.SilkS) (width 0.15))
  (pad 1 smd circle (at 0 0) (size 0.4 0.4) (layers F.Cu F.Paste F.Mask))
  (pad 2 smd circle (at 0.8 0) (size 0.4 0.4) (layers F.Cu F.Paste F.Mask))
  (pad 3 smd circle (at 1.6 0) (size 0.4 0.4) (layers F.Cu F.Paste F.Mask))
  (pad 4 smd circle (at 2.4 0) (size 0.4 0.4) (layers F.Cu F.Paste F.Mask))
  (pad 5 smd circle (at 3.2 0) (size 0.4 0.4) (layers F.Cu F.Paste F.Mask))
  (pad 6 smd circle (at 4 0) (size 0.4 0.4) (layers F.Cu F.Paste F.Mask))
  (pad 7 smd circle (at 4.8 0) (size 0.4 0.4) (layers F.Cu F.Paste F.Mask))
  (pad 8 smd circle (at 5.6 0) (size 0.4 0.4) (layers F.Cu F.Paste F.Mask))
  (pad 9 smd circle (at 6.4 0) (size 0.4 0.4) (layers F.Cu F.Paste F.Mask))
  (pad 10 smd circle (at 7.2 0) (size 0.4 0.4) (layers F.Cu F.Paste F.Mask))
  (pad 11 smd circle (at 8 0) (size 0.4 0.4) (layers F.Cu F.Paste F.Mask))
  (pad 12 smd circle (at 8.8 0) (size 0.4 0.4) (layers F.Cu F.Paste F.Mask))
  (pad 13 smd circle (at 9.6 0) (size 0.4 0.4) (layers F.Cu F.Paste F.Mask))
  (pad 14 smd circle (at 10.4 0) (size 0.4 0.4) (layers F.Cu F.Paste F.Mask))
  (pad 15 smd circle (at 11.2 0) (size 0.4 0.4) (layers F.Cu F.Paste F.Mask))
  (pad 16 smd circle (at 0 0.8) (size 0.4 0.4) (layers F.Cu F.Paste F.Mask))
  (pad 17 smd circle (at 0.8 0.8) (size 0.4 0.4) (layers F.Cu F.Paste F.Mask))
  (pad 18 smd circle (at 1.6 0.8) (size 0.4 0.4) (layers F.Cu F.Paste F.Mask))
  (pad 19 smd circle (at 2.4 0.8) (size 0.4 0.4) (layers F.Cu F.Paste F.Mask))
  (pad 20 smd circle (at 3.2 0.8) (size 0.4 0.4) (layers F.Cu F.Paste F.Mask))
  (pad 21 smd circle (at 4 0.8) (size 0.4 0.4) (layers F.Cu F.Paste F.Mask))
  (pad 22 smd circle (at 4.8 0.8) (size 0.4 0.4) (layers F.Cu F.Paste F.Mask))
  (pad 23 smd circle (at 5.6 0.8) (size 0.4 0.4) (layers F.Cu F.Paste F.Mask))
  (pad 24 smd circle (at 6.4 0.8) (size 0.4 0.4) (layers F.Cu F.Paste F.Mask))
  (pad 25 smd circle (at 7.2 0.8) (size 0.4 0.4) (layers F.Cu F.Paste F.Mask))
  (pad 26 smd circle (at 8 0.8) (size 0.4 0.4) (layers F.Cu F.Paste F.Mask))
  (pad 27 smd circle (at 8.8 0.8) (size 0.4 0.4) (layers F.Cu F.Paste F.Mask))
  (pad 28 smd circle (at 9.6 0.8) (size 0.4 0.4) (layers F.Cu F.Paste F.Mask))
  (pad 29 smd circle (at 10.4 0.8) (size 0.4 0.4) (layers F.Cu F.Paste F.Mask))
  (pad 30 smd circle (at 11.2 0.8) (size 0.4 0.4) (layers F.Cu F.Paste F.Mask))
  (pad 31 smd circle (at 0 1.6) (size 0.4 0.4) (layers F.Cu F.Paste F.Mask))
  (pad 32 smd circle (at 0.8 1.6) (size 0.4 0.4) (layers F.Cu F.Paste F.Mask))
  (pad 33 smd circle (at 1.6 1.6) (size 0.4 0.4) (layers F.Cu F.Paste F.Mask))
  (pad 34 smd circle (at 2.4 1.6) (size 0.4 0.4) (layers F.Cu F.Paste F.Mask))
  (pad 35 smd circle (at 3.2 1.6) (size 0.4 0.4) (layers F.Cu F.Paste F.Mask))
  (pad 36 smd circle (at 4 1.6) (size 0.4 0.4) (layers F.Cu F.Paste F.Mask))
  (pad 37 smd circle (at 4.8 1.6) (size 0.4 0.4) (layers F.Cu F.Paste F.Mask))
  (pad 38 smd circle (at 5.6 1.6) (size 0.4 0.4) (layers F.Cu F.Paste F.Mask))
  (pad 39 smd circle (at 6.4 1.6) (size 0.4 0.4) (layers F.Cu F.Paste F.Mask))
  (pad 40 smd circle (at 7.2 1.6) (size 0.4 0.4) (layers F.Cu F.Paste F.Mask))
  (pad 41 smd circle (at 8 1.6) (size 0.4 0.4) (layers F.Cu F.Paste F.Mask))
  (pad 42 smd circle (at 8.8 1.6) (size 0.4 0.4) (layers F.Cu F.Paste F.Mask))
  (pad 43 smd circle (at 9.6 1.6) (size 0.4 0.4) (layers F.Cu F.Paste F.Mask))
  (pad 44 smd circle (at 10.4 1.6) (size 0.4 0.4) (layers F.Cu F.Paste F.Mask))
  (pad 45 smd circle (at 11.2 1.6) (size 0.4 0.4) (layers F.Cu F.Paste F.Mask))
  (pad 46 smd circle (at 0 2.4) (size 0.4 0.4) (layers F.Cu F.Paste F.Mask))
  (pad 47 smd circle (at 0.8 2.4) (size 0.4 0.4) (layers F.Cu F.Paste F.Mask))
  (pad 48 smd circle (at 1.6 2.4) (size 0.4 0.4) (layers F.Cu F.Paste F.Mask))
  (pad 49 smd circle (at 2.4 2.4) (size 0.4 0.4) (layers F.Cu F.Paste F.Mask))
  (pad 50 smd circle (at 3.2 2.4) (size 0.4 0.4) (layers F.Cu F.Paste F.Mask))
  (pad 51 smd circle (at 4 2.4) (size 0.4 0.4) (layers F.Cu F.Paste F.Mask))
  (pad 52 smd circle (at 4.8 2.4) (size 0.4 0.4) (layers F.Cu F.Paste F.Mask))
  (pad 53 smd circle (at 5.6 2.4) (size 0.4 0.4) (layers F.Cu F.Paste F.Mask))
  (pad 54 smd circle (at 6.4 2.4) (size 0.4 0.4) (layers F.Cu F.Paste F.Mask))
  (pad 55 smd circle (at 7.2 2.4) (size 0.4 0.4) (layers F.Cu F.Paste F.Mask))
  (pad 56 smd circle (at 8 2.4) (size 0.4 0.4) (layers F.Cu F.Paste F.Mask))
  (pad 57 smd circle (at 8.8 2.4) (size 0.4 0.4) (layers F.Cu F.Paste F.Mask))
  (pad 58 smd circle (at 9.6 2.4) (size 0.4 0.4) (layers F.Cu F.Paste F.Mask))
  (pad 59 smd circle (at 10.4 2.4) (size 0.4 0.4) (layers F.Cu F.Paste F.Mask))
  (pad 60 smd circle (at 11.2 2.4) (size 0.4 0.4) (layers F.Cu F.Paste F.Mask))
  (pad 61 smd circle (at 0 3.2) (size 0.4 0.4) (layers F.Cu F.Paste F.Mask))
  (pad 62 smd circle (at 0.8 3.2) (size 0.4 0.4) (layers F.Cu F.Paste F.Mask))
  (pad 63 smd circle (at 1.6 3.2) (size 0.4 0.4) (layers F.Cu F.Paste F.Mask))
  (pad 64 smd circle (at 2.4 3.2) (size 0.4 0.4) (layers F.Cu F.Paste F.Mask))
  (pad 65 smd circle (at 3.2 3.2) (size 0.4 0.4) (layers F.Cu F.Paste F.Mask))
  (pad 66 smd circle (at 4 3.2) (size 0.4 0.4) (layers F.Cu F.Paste F.Mask))
  (pad 67 smd circle (at 4.8 3.2) (size 0.4 0.4) (layers F.Cu F.Paste F.Mask))
  (pad 68 smd circle (at 5.6 3.2) (size 0.4 0.4) (layers F.Cu F.Paste F.Mask))
  (pad 69 smd circle (at 6.4 3.2) (size 0.4 0.4) (layers F.Cu F.Paste F.Mask))
  (pad 70 smd circle (at 7.2 3.2) (size 0.4 0.4) (layers F.Cu F.Paste F.Mask))
  (pad 71 smd circle (at 8 3.2) (size 0.4 0.4) (layers F.Cu F.Paste F.Mask))
  (pad 72 smd circle (at 8.8 3.2) (size 0.4 0.4) (layers F.Cu F.Paste F.Mask))
  (pad 73 smd circle (at 9.6 3.2) (size 0.4 0.4) (layers F.Cu F.Paste F.Mask))
  (pad 74 smd circle (at 10.4 3.2) (size 0.4 0.4) (layers F.Cu F.Paste F.Mask))
  (pad 75 smd circle (at 11.2 3.2) (size 0.4 0.4) (layers F.Cu F.Paste F.Mask))
  (pad 76 smd circle (at 0 4) (size 0.4 0.4) (layers F.Cu F.Paste F.Mask))
  (pad 77 smd circle (at 0.8 4) (size 0.4 0.4) (layers F.Cu F.Paste F.Mask))
  (pad 78 smd circle (at 1.6 4) (size 0.4 0.4) (layers F.Cu F.Paste F.Mask))
  (pad 79 smd circle (at 2.4 4) (size 0.4 0.4) (layers F.Cu F.Paste F.Mask))
  (pad 80 smd circle (at 3.2 4) (size 0.4 0.4) (layers F.Cu F.Paste F.Mask))
  (pad 81 smd circle (at 4 4) (size 0.4 0.4) (layers F.Cu F.Paste F.Mask))
  (pad 82 smd circle (at 4.8 4) (size 0.4 0.4) (layers F.Cu F.Paste F.Mask))
  (pad 83 smd circle (at 5.6 4) (size 0.4 0.4) (layers F.Cu F.Paste F.Mask))
  (pad 84 smd circle (at 6.4 4) (size 0.4 0.4) (layers F.Cu F.Paste F.Mask))
  (pad 85 smd circle (at 7.2 4) (size 0.4 0.4) (layers F.Cu F.Paste F.Mask))
  (pad 86 smd circle (at 8 4) (size 0.4 0.4) (layers F.Cu F.Paste F.Mask))
  (pad 87 smd circle (at 8.8 4) (size 0.4 0.4) (layers F.Cu F.Paste F.Mask))
  (pad 88 smd circle (at 9.6 4) (size 0.4 0.4) (layers F.Cu F.Paste F.Mask))
  (pad 89 smd circle (at 10.4 4) (size 0.4 0.4) (layers F.Cu F.Paste F.Mask))
  (pad 90 smd circle (at 11.2 4) (size 0.4 0.4) (layers F.Cu F.Paste F.Mask))
  (pad 91 smd circle (at 0 4.8) (size 0.4 0.4) (layers F.Cu F.Paste F.Mask))
  (pad 92 smd circle (at 0.8 4.8) (size 0.4 0.4) (layers F.Cu F.Paste F.Mask))
  (pad 93 smd circle (at 1.6 4.8) (size 0.4 0.4) (layers F.Cu F.Paste F.Mask))
  (pad 94 smd circle (at 2.4 4.8) (size 0.4 0.4) (layers F.Cu F.Paste F.Mask))
  (pad 95 smd circle (at 3.2 4.8) (size 0.4 0.4) (layers F.Cu F.Paste F.Mask))
  (pad 96 smd circle (at 4 4.8) (size 0.4 0.4) (layers F.Cu F.Paste F.Mask))
  (pad 97 smd circle (at 4.8 4.8) (size 0.4 0.4) (layers F.Cu F.Paste F.Mask))
  (pad 98 smd circle (at 5.6 4.8) (size 0.4 0.4) (layers F.Cu F.Paste F.Mask))
  (pad 99 smd circle (at 6.4 4.8) (size 0.4 0.4) (layers F.Cu F.Paste F.Mask))
  (pad 100 smd circle (at 7.2 4.8) (size 0.4 0.4) (layers F.Cu F.Paste F.Mask))
  (pad 101 smd circle (at 8 4.8) (size 0.4 0.4) (layers F.Cu F.Paste F.Mask))
  (pad 102 smd circle (at 8.8 4.8) (size 0.4 0.4) (layers F.Cu F.Paste F.Mask))
  (pad 103 smd circle (at 9.6 4.8) (size 0.4 0.4) (layers F.Cu F.Paste F.Mask))
  (pad 104 smd circle (at 10.4 4.8) (size 0.4 0.4) (layers F.Cu F.Paste F.Mask))
  (pad 105 smd circle (at 11.2 4.8) (size 0.4 0.4) (layers F.Cu F.Paste F.Mask))
  (pad 106 smd circle (at 0 5.6) (size 0.4 0.4) (layers F.Cu F.Paste F.Mask))
  (pad 107 smd circle (at 0.8 5.6) (size 0.4 0.4) (layers F.Cu F.Paste F.Mask))
  (pad 108 smd circle (at 1.6 5.6) (size 0.4 0.4) (layers F.Cu F.Paste F.Mask))
  (pad 109 smd circle (at 2.4 5.6) (size 0.4 0.4) (layers F.Cu F.Paste F.Mask))
  (pad 110 smd circle (at 3.2 5.6) (size 0.4 0.4) (layers F.Cu F.Paste F.Mask))
  (pad 111 smd circle (at 4 5.6) (size 0.4 0.4) (layers F.Cu F.Paste F.Mask))
  (pad 112 smd circle (at 4.8 5.6) (size 0.4 0.4) (layers F.Cu F.Paste F.Mask))
  (pad 113 smd circle (at 5.6 5.6) (size 0.4 0.4) (layers F.Cu F.Paste F.Mask))
  (pad 114 smd circle (at 6.4 5.6) (size 0.4 0.4) (layers F.Cu F.Paste F.Mask))
  (pad 115 smd circle (at 7.2 5.6) (size 0.4 0.4) (layers F.Cu F.Paste F.Mask))
  (pad 116 smd circle (at 8 5.6) (size 0.4 0.4) (layers F.Cu F.Paste F.Mask))
  (pad 117 smd circle (at 8.8 5.6) (size 0.4 0.4) (layers F.Cu F.Paste F.Mask))
  (pad 118 smd circle (at 9.6 5.6) (size 0.4 0.4) (layers F.Cu F.Paste F.Mask))
  (pad 119 smd circle (at 10.4 5.6) (size 0.4 0.4) (layers F.Cu F.Paste F.Mask))
  (pad 120 smd circle (at 11.2 5.6) (size 0.4 0.4) (layers F.Cu F.Paste F.Mask))
  (pad 121 smd circle (at 0 6.4) (size 0.4 0.4) (layers F.Cu F.Paste F.Mask))
  (pad 122 smd circle (at 0.8 6.4) (size 0.4 0.4) (layers F.Cu F.Paste F.Mask))
  (pad 123 smd circle (at 1.6 6.4) (size 0.4 0.4) (layers F.Cu F.Paste F.Mask))
  (pad 124 smd circle (at 2.4 6.4) (size 0.4 0.4) (layers F.Cu F.Paste F.Mask))
  (pad 125 smd circle (at 3.2 6.4) (size 0.4 0.4) (layers F.Cu F.Paste F.Mask))
  (pad 126 smd circle (at 4 6.4) (size 0.4 0.4) (layers F.Cu F.Paste F.Mask))
  (pad 127 smd circle (at 4.8 6.4) (size 0.4 0.4) (layers F.Cu F.Paste F.Mask))
  (pad 128 smd circle (at 5.6 6.4) (size 0.4 0.4) (layers F.Cu F.Paste F.Mask))
  (pad 129 smd circle (at 6.4 6.4) (size 0.4 0.4) (layers F.Cu F.Paste F.Mask))
  (pad 130 smd circle (at 7.2 6.4) (size 0.4 0.4) (layers F.Cu F.Paste F.Mask))
  (pad 131 smd circle (at 8 6.4) (size 0.4 0.4) (layers F.Cu F.Paste F.Mask))
  (pad 132 smd circle (at 8.8 6.4) (size 0.4 0.4) (layers F.Cu F.Paste F.Mask))
  (pad 133 smd circle (at 9.6 6.4) (size 0.4 0.4) (layers F.Cu F.Paste F.Mask))
  (pad 134 smd circle (at 10.4 6.4) (size 0.4 0.4) (layers F.Cu F.Paste F.Mask))
  (pad 135 smd circle (at 11.2 6.4) (size 0.4 0.4) (layers F.Cu F.Paste F.Mask))
  (pad 136 smd circle (at 0 7.2) (size 0.4 0.4) (layers F.Cu F.Paste F.Mask))
  (pad 137 smd circle (at 0.8 7.2) (size 0.4 0.4) (layers F.Cu F.Paste F.Mask))
  (pad 138 smd circle (at 1.6 7.2) (size 0.4 0.4) (layers F.Cu F.Paste F.Mask))
  (pad 139 smd circle (at 2.4 7.2) (size 0.4 0.4) (layers F.Cu F.Paste F.Mask))
  (pad 140 smd circle (at 3.2 7.2) (size 0.4 0.4) (layers F.Cu F.Paste F.Mask))
  (pad 141 smd circle (at 4 7.2) (size 0.4 0.4) (layers F.Cu F.Paste F.Mask))
  (pad 142 smd circle (at 4.8 7.2) (size 0.4 0.4) (layers F.Cu F.Paste F.Mask))
  (pad 143 smd circle (at 5.6 7.2) (size 0.4 0.4) (layers F.Cu F.Paste F.Mask))
  (pad 144 smd circle (at 6.4 7.2) (size 0.4 0.4) (layers F.Cu F.Paste F.Mask))
  (pad 145 smd circle (at 7.2 7.2) (size 0.4 0.4) (layers F.Cu F.Paste F.Mask))
  (pad 146 smd circle (at 8 7.2) (size 0.4 0.4) (layers F.Cu F.Paste F.Mask))
  (pad 147 smd circle (at 8.8 7.2) (size 0.4 0.4) (layers F.Cu F.Paste F.Mask))
  (pad 148 smd circle (at 9.6 7.2) (size 0.4 0.4) (layers F.Cu F.Paste F.Mask))
  (pad 149 smd circle (at 10.4 7.2) (size 0.4 0.4) (layers F.Cu F.Paste F.Mask))
  (pad 150 smd circle (at 11.2 7.2) (size 0.4 0.4) (layers F.Cu F.Paste F.Mask))
  (pad 151 smd circle (at 0 8) (size 0.4 0.4) (layers F.Cu F.Paste F.Mask))
  (pad 152 smd circle (at 0.8 8) (size 0.4 0.4) (layers F.Cu F.Paste F.Mask))
  (pad 153 smd circle (at 1.6 8) (size 0.4 0.4) (layers F.Cu F.Paste F.Mask))
  (pad 154 smd circle (at 2.4 8) (size 0.4 0.4) (layers F.Cu F.Paste F.Mask))
  (pad 155 smd circle (at 3.2 8) (size 0.4 0.4) (layers F.Cu F.Paste F.Mask))
  (pad 156 smd circle (at 4 8) (size 0.4 0.4) (layers F.Cu F.Paste F.Mask))
  (pad 157 smd circle (at 4.8 8) (size 0.4 0.4) (layers F.Cu F.Paste F.Mask))
  (pad 158 smd circle (at 5.6 8) (size 0.4 0.4) (layers F.Cu F.Paste F.Mask))
  (pad 159 smd circle (at 6.4 8) (size 0.4 0.4) (layers F.Cu F.Paste F.Mask))
  (pad 160 smd circle (at 7.2 8) (size 0.4 0.4) (layers F.Cu F.Paste F.Mask))
  (pad 161 smd circle (at 8 8) (size 0.4 0.4) (layers F.Cu F.Paste F.Mask))
  (pad 162 smd circle (at 8.8 8) (size 0.4 0.4) (layers F.Cu F.Paste F.Mask))
  (pad 163 smd circle (at 9.6 8) (size 0.4 0.4) (layers F.Cu F.Paste F.Mask))
  (pad 164 smd circle (at 10.4 8) (size 0.4 0.4) (layers F.Cu F.Paste F.Mask))
  (pad 165 smd circle (at 11.2 8) (size 0.4 0.4) (layers F.Cu F.Paste F.Mask))
  (pad 166 smd circle (at 0 8.8) (size 0.4 0.4) (layers F.Cu F.Paste F.Mask))
  (pad 167 smd circle (at 0.8 8.8) (size 0.4 0.4) (layers F.Cu F.Paste F.Mask))
  (pad 168 smd circle (at 1.6 8.8) (size 0.4 0.4) (layers F.Cu F.Paste F.Mask))
  (pad 169 smd circle (at 2.4 8.8) (size 0.4 0.4) (layers F.Cu F.Paste F.Mask))
  (pad 170 smd circle (at 3.2 8.8) (size 0.4 0.4) (layers F.Cu F.Paste F.Mask))
  (pad 171 smd circle (at 4 8.8) (size 0.4 0.4) (layers F.Cu F.Paste F.Mask))
  (pad 172 smd circle (at 4.8 8.8) (size 0.4 0.4) (layers F.Cu F.Paste F.Mask))
  (pad 173 smd circle (at 5.6 8.8) (size 0.4 0.4) (layers F.Cu F.Paste F.Mask))
  (pad 174 smd circle (at 6.4 8.8) (size 0.4 0.4) (layers F.Cu F.Paste F.Mask))
  (pad 175 smd circle (at 7.2 8.8) (size 0.4 0.4) (layers F.Cu F.Paste F.Mask))
  (pad 176 smd circle (at 8 8.8) (size 0.4 0.4) (layers F.Cu F.Paste F.Mask))
  (pad 177 smd circle (at 8.8 8.8) (size 0.4 0.4) (layers F.Cu F.Paste F.Mask))
  (pad 178 smd circle (at 9.6 8.8) (size 0.4 0.4) (layers F.Cu F.Paste F.Mask))
  (pad 179 smd circle (at 10.4 8.8) (size 0.4 0.4) (layers F.Cu F.Paste F.Mask))
  (pad 180 smd circle (at 11.2 8.8) (size 0.4 0.4) (layers F.Cu F.Paste F.Mask))
  (pad 181 smd circle (at 0 9.6) (size 0.4 0.4) (layers F.Cu F.Paste F.Mask))
  (pad 182 smd circle (at 0.8 9.6) (size 0.4 0.4) (layers F.Cu F.Paste F.Mask))
  (pad 183 smd circle (at 1.6 9.6) (size 0.4 0.4) (layers F.Cu F.Paste F.Mask))
  (pad 184 smd circle (at 2.4 9.6) (size 0.4 0.4) (layers F.Cu F.Paste F.Mask))
  (pad 185 smd circle (at 3.2 9.6) (size 0.4 0.4) (layers F.Cu F.Paste F.Mask))
  (pad 186 smd circle (at 4 9.6) (size 0.4 0.4) (layers F.Cu F.Paste F.Mask))
  (pad 187 smd circle (at 4.8 9.6) (size 0.4 0.4) (layers F.Cu F.Paste F.Mask))
  (pad 188 smd circle (at 5.6 9.6) (size 0.4 0.4) (layers F.Cu F.Paste F.Mask))
  (pad 189 smd circle (at 6.4 9.6) (size 0.4 0.4) (layers F.Cu F.Paste F.Mask))
  (pad 190 smd circle (at 7.2 9.6) (size 0.4 0.4) (layers F.Cu F.Paste F.Mask))
  (pad 191 smd circle (at 8 9.6) (size 0.4 0.4) (layers F.Cu F.Paste F.Mask))
  (pad 192 smd circle (at 8.8 9.6) (size 0.4 0.4) (layers F.Cu F.Paste F.Mask))
  (pad 193 smd circle (at 9.6 9.6) (size 0.4 0.4) (layers F.Cu F.Paste F.Mask))
  (pad 194 smd circle (at 10.4 9.6) (size 0.4 0.4) (layers F.Cu F.Paste F.Mask))
  (pad 195 smd circle (at 11.2 9.6) (size 0.4 0.4) (layers F.Cu F.Paste F.Mask))
  (pad 196 smd circle (at 0 10.4) (size 0.4 0.4) (layers F.Cu F.Paste F.Mask))
  (pad 197 smd circle (at 0.8 10.4) (size 0.4 0.4) (layers F.Cu F.Paste F.Mask))
  (pad 198 smd circle (at 1.6 10.4) (size 0.4 0.4) (layers F.Cu F.Paste F.Mask))
  (pad 199 smd circle (at 2.4 10.4) (size 0.4 0.4) (layers F.Cu F.Paste F.Mask))
  (pad 200 smd circle (at 3.2 10.4) (size 0.4 0.4) (layers F.Cu F.Paste F.Mask))
  (pad 201 smd circle (at 4 10.4) (size 0.4 0.4) (layers F.Cu F.Paste F.Mask))
  (pad 202 smd circle (at 4.8 10.4) (size 0.4 0.4) (layers F.Cu F.Paste F.Mask))
  (pad 203 smd circle (at 5.6 10.4) (size 0.4 0.4) (layers F.Cu F.Paste F.Mask))
  (pad 204 smd circle (at 6.4 10.4) (size 0.4 0.4) (layers F.Cu F.Paste F.Mask))
  (pad 205 smd circle (at 7.2 10.4) (size 0.4 0.4) (layers F.Cu F.Paste F.Mask))
  (pad 206 smd circle (at 8 10.4) (size 0.4 0.4) (layers F.Cu F.Paste F.Mask))
  (pad 207 smd circle (at 8.8 10.4) (size 0.4 0.4) (layers F.Cu F.Paste F.Mask))
  (pad 208 smd circle (at 9.6 10.4) (size 0.4 0.4) (layers F.Cu F.Paste F.Mask))
  (pad 209 smd circle (at 10.4 10.4) (size 0.4 0.4) (layers F.Cu F.Paste F.Mask))
  (pad 210 smd circle (at 11.2 10.4) (size 0.4 0.4) (layers F.Cu F.Paste F.Mask))
  (pad 211 smd circle (at 0 11.2) (size 0.4 0.4) (layers F.Cu F.Paste F.Mask))
  (pad 212 smd circle (at 0.8 11.2) (size 0.4 0.4) (layers F.Cu F.Paste F.Mask))
  (pad 213 smd circle (at 1.6 11.2) (size 0.4 0.4) (layers F.Cu F.Paste F.Mask))
  (pad 214 smd circle (at 2.4 11.2) (size 0.4 0.4) (layers F.Cu F.Paste F.Mask))
  (pad 215 smd circle (at 3.2 11.2) (size 0.4 0.4) (layers F.Cu F.Paste F.Mask))
  (pad 216 smd circle (at 4 11.2) (size 0.4 0.4) (layers F.Cu F.Paste F.Mask))
  (pad 217 smd circle (at 4.8 11.2) (size 0.4 0.4) (layers F.Cu F.Paste F.Mask))
  (pad 218 smd circle (at 5.6 11.2) (size 0.4 0.4) (layers F.Cu F.Paste F.Mask))
  (pad 219 smd circle (at 6.4 11.2) (size 0.4 0.4) (layers F.Cu F.Paste F.Mask))
  (pad 220 smd circle (at 7.2 11.2) (size 0.4 0.4) (layers F.Cu F.Paste F.Mask))
  (pad 221 smd circle (at 8 11.2) (size 0.4 0.4) (layers F.Cu F.Paste F.Mask))
  (pad 222 smd circle (at 8.8 11.2) (size 0.4 0.4) (layers F.Cu F.Paste F.Mask))
  (pad 223 smd circle (at 9.6 11.2) (size 0.4 0.4) (layers F.Cu F.Paste F.Mask))
  (pad 224 smd circle (at 10.4 11.2) (size 0.4 0.4) (layers F.Cu F.Paste F.Mask))
  (pad 225 smd circle (at 11.2 11.2) (size 0.4 0.4) (layers F.Cu F.Paste F.Mask))
)
