EESchema Schematic File Version 4
LIBS:ect-cache
EELAYER 26 0
EELAYER END
$Descr A4 11693 8268
encoding utf-8
Sheet 1 1
Title ""
Date ""
Rev ""
Comp ""
Comment1 ""
Comment2 ""
Comment3 ""
Comment4 ""
$EndDescr
$Comp
L Comparator:LM339 U1
U 1 1 5C9BB6E7
P 4350 3150
F 0 "U1" H 4350 3517 50  0000 C CNN
F 1 "LM339" H 4350 3426 50  0000 C CNN
F 2 "Housings_DIP:DIP-14_W7.62mm_Socket_LongPads" H 4300 3250 50  0001 C CNN
F 3 "http://www.ti.com/lit/ds/symlink/lm339.pdf" H 4400 3350 50  0001 C CNN
	1    4350 3150
	1    0    0    -1  
$EndComp
$Comp
L Comparator:LM339 U1
U 2 1 5C9BB780
P 3050 5700
F 0 "U1" H 3050 6067 50  0000 C CNN
F 1 "LM339" H 3050 5976 50  0000 C CNN
F 2 "Housings_DIP:DIP-14_W7.62mm_Socket_LongPads" H 3000 5800 50  0001 C CNN
F 3 "http://www.ti.com/lit/ds/symlink/lm339.pdf" H 3100 5900 50  0001 C CNN
	2    3050 5700
	1    0    0    -1  
$EndComp
$Comp
L Comparator:LM339 U1
U 3 1 5C9BB872
P 3050 6150
F 0 "U1" H 3050 6517 50  0000 C CNN
F 1 "LM339" H 3050 6426 50  0000 C CNN
F 2 "Housings_DIP:DIP-14_W7.62mm_Socket_LongPads" H 3000 6250 50  0001 C CNN
F 3 "http://www.ti.com/lit/ds/symlink/lm339.pdf" H 3100 6350 50  0001 C CNN
	3    3050 6150
	1    0    0    -1  
$EndComp
$Comp
L Comparator:LM339 U1
U 4 1 5C9BB92B
P 3050 6650
F 0 "U1" H 3050 7017 50  0000 C CNN
F 1 "LM339" H 3050 6926 50  0000 C CNN
F 2 "Housings_DIP:DIP-14_W7.62mm_Socket_LongPads" H 3000 6750 50  0001 C CNN
F 3 "http://www.ti.com/lit/ds/symlink/lm339.pdf" H 3100 6850 50  0001 C CNN
	4    3050 6650
	1    0    0    -1  
$EndComp
$Comp
L Comparator:LM339 U1
U 5 1 5C9BBA8E
P 2500 4950
F 0 "U1" H 2458 4996 50  0000 L CNN
F 1 "LM339" H 2458 4905 50  0000 L CNN
F 2 "Housings_DIP:DIP-14_W7.62mm_Socket_LongPads" H 2450 5050 50  0001 C CNN
F 3 "http://www.ti.com/lit/ds/symlink/lm339.pdf" H 2550 5150 50  0001 C CNN
	5    2500 4950
	1    0    0    -1  
$EndComp
$Comp
L power:GND #PWR0101
U 1 1 5C9BBC5C
P 2400 5300
F 0 "#PWR0101" H 2400 5050 50  0001 C CNN
F 1 "GND" H 2405 5127 50  0000 C CNN
F 2 "" H 2400 5300 50  0001 C CNN
F 3 "" H 2400 5300 50  0001 C CNN
	1    2400 5300
	1    0    0    -1  
$EndComp
Wire Wire Line
	2400 5300 2400 5250
$Comp
L power:VCC #PWR0102
U 1 1 5C9BBF22
P 2400 4600
F 0 "#PWR0102" H 2400 4450 50  0001 C CNN
F 1 "VCC" H 2415 4773 50  0000 C CNN
F 2 "" H 2400 4600 50  0001 C CNN
F 3 "" H 2400 4600 50  0001 C CNN
	1    2400 4600
	1    0    0    -1  
$EndComp
Wire Wire Line
	2400 4600 2400 4650
NoConn ~ 2750 5600
NoConn ~ 2750 5800
NoConn ~ 3350 5700
NoConn ~ 2750 6050
NoConn ~ 2750 6250
NoConn ~ 3350 6150
NoConn ~ 2750 6550
NoConn ~ 2750 6750
NoConn ~ 3350 6650
$Comp
L Device:C_Small C2
U 1 1 5C9BC068
P 3150 4900
F 0 "C2" H 3058 4854 50  0000 R CNN
F 1 "100n" H 3058 4945 50  0000 R CNN
F 2 "Capacitors_ThroughHole:C_Disc_D3.0mm_W2.0mm_P2.50mm" H 3150 4900 50  0001 C CNN
F 3 "~" H 3150 4900 50  0001 C CNN
	1    3150 4900
	-1   0    0    1   
$EndComp
$Comp
L power:GND #PWR0104
U 1 1 5C9BC340
P 3150 5050
F 0 "#PWR0104" H 3150 4800 50  0001 C CNN
F 1 "GND" H 3155 4877 50  0000 C CNN
F 2 "" H 3150 5050 50  0001 C CNN
F 3 "" H 3150 5050 50  0001 C CNN
	1    3150 5050
	1    0    0    -1  
$EndComp
Wire Wire Line
	3150 4800 3150 4750
Wire Wire Line
	3150 5050 3150 5000
$Comp
L Transistor_BJT:2N3904 Q1
U 1 1 5C9BC5A6
P 3500 3650
F 0 "Q1" H 3691 3696 50  0000 L CNN
F 1 "2N3904" H 3691 3605 50  0000 L CNN
F 2 "TO_SOT_Packages_THT:TO-92_Inline_Wide" H 3700 3575 50  0001 L CIN
F 3 "https://www.fairchildsemi.com/datasheets/2N/2N3904.pdf" H 3500 3650 50  0001 L CNN
	1    3500 3650
	1    0    0    -1  
$EndComp
$Comp
L Device:R_POT 10k1
U 1 1 5C9BFA21
P 3250 3450
F 0 "10k1" H 3180 3404 50  0000 R CNN
F 1 "R_POT" H 3180 3495 50  0000 R CNN
F 2 "Potentiometers:Potentiometer_Trimmer_ACP_CA9h2.5_Vertical_Px2.5mm_Py5.0mm" H 3250 3450 50  0001 C CNN
F 3 "~" H 3250 3450 50  0001 C CNN
	1    3250 3450
	-1   0    0    1   
$EndComp
$Comp
L Device:R R3
U 1 1 5C9BFB80
P 3250 3850
F 0 "R3" H 3320 3896 50  0000 L CNN
F 1 "1k" H 3320 3805 50  0000 L CNN
F 2 "Resistors_ThroughHole:R_Axial_DIN0204_L3.6mm_D1.6mm_P7.62mm_Horizontal" V 3180 3850 50  0001 C CNN
F 3 "~" H 3250 3850 50  0001 C CNN
	1    3250 3850
	1    0    0    -1  
$EndComp
$Comp
L Device:R R1
U 1 1 5C9BFCF2
P 2900 2750
F 0 "R1" H 2970 2796 50  0000 L CNN
F 1 "1k" H 2970 2705 50  0000 L CNN
F 2 "Resistors_ThroughHole:R_Axial_DIN0204_L3.6mm_D1.6mm_P7.62mm_Horizontal" V 2830 2750 50  0001 C CNN
F 3 "~" H 2900 2750 50  0001 C CNN
	1    2900 2750
	1    0    0    -1  
$EndComp
Wire Wire Line
	2900 3750 2900 3050
$Comp
L Device:C_Small C1
U 1 1 5C9C0E8A
P 2900 4900
F 0 "C1" H 2808 4854 50  0000 R CNN
F 1 "100n" H 2808 4945 50  0000 R CNN
F 2 "Capacitors_ThroughHole:C_Disc_D3.0mm_W2.0mm_P2.50mm" H 2900 4900 50  0001 C CNN
F 3 "~" H 2900 4900 50  0001 C CNN
	1    2900 4900
	-1   0    0    1   
$EndComp
$Comp
L power:GND #PWR0107
U 1 1 5C9C0EEF
P 2900 5050
F 0 "#PWR0107" H 2900 4800 50  0001 C CNN
F 1 "GND" H 2905 4877 50  0000 C CNN
F 2 "" H 2900 5050 50  0001 C CNN
F 3 "" H 2900 5050 50  0001 C CNN
	1    2900 5050
	1    0    0    -1  
$EndComp
Wire Wire Line
	2900 5050 2900 5000
Wire Wire Line
	2900 4800 2900 4750
$Comp
L power:GND #PWR0108
U 1 1 5C9C182F
P 2900 4100
F 0 "#PWR0108" H 2900 3850 50  0001 C CNN
F 1 "GND" H 2905 3927 50  0000 C CNN
F 2 "" H 2900 4100 50  0001 C CNN
F 3 "" H 2900 4100 50  0001 C CNN
	1    2900 4100
	1    0    0    -1  
$EndComp
$Comp
L Device:R R2
U 1 1 5C9C1FEE
P 3250 2750
F 0 "R2" H 3320 2796 50  0000 L CNN
F 1 "1k" H 3320 2705 50  0000 L CNN
F 2 "Resistors_ThroughHole:R_Axial_DIN0204_L3.6mm_D1.6mm_P7.62mm_Horizontal" V 3180 2750 50  0001 C CNN
F 3 "~" H 3250 2750 50  0001 C CNN
	1    3250 2750
	1    0    0    -1  
$EndComp
Wire Wire Line
	3250 2600 3250 2500
Wire Wire Line
	4050 3250 3600 3250
Wire Wire Line
	2900 3850 2900 4050
Wire Wire Line
	3600 4050 3250 4050
Wire Wire Line
	3250 4000 3250 4050
Connection ~ 3250 4050
Wire Wire Line
	3250 4050 2900 4050
Wire Wire Line
	2900 4100 2900 4050
Connection ~ 2900 4050
Wire Wire Line
	3600 3450 3600 3250
Wire Wire Line
	3250 2900 3250 3250
Wire Wire Line
	3600 3250 3250 3250
Connection ~ 3600 3250
Connection ~ 3250 3250
Wire Wire Line
	3250 3250 3250 3300
Wire Wire Line
	3100 3450 3050 3450
Wire Wire Line
	3050 3450 3050 3650
Wire Wire Line
	3050 3650 3250 3650
Wire Wire Line
	3250 3700 3250 3650
Connection ~ 3250 3650
Wire Wire Line
	3250 3650 3300 3650
NoConn ~ 3250 3600
Wire Wire Line
	3600 4050 3600 3850
Wire Wire Line
	4050 3050 2900 3050
Connection ~ 2900 3050
Wire Wire Line
	2900 3050 2900 2900
$Comp
L power:VCC #PWR0109
U 1 1 5C9C7526
P 4800 2700
F 0 "#PWR0109" H 4800 2550 50  0001 C CNN
F 1 "VCC" H 4817 2873 50  0000 C CNN
F 2 "" H 4800 2700 50  0001 C CNN
F 3 "" H 4800 2700 50  0001 C CNN
	1    4800 2700
	1    0    0    -1  
$EndComp
$Comp
L Device:R R5
U 1 1 5C9C75B3
P 4800 2900
F 0 "R5" H 4870 2946 50  0000 L CNN
F 1 "4.7k" H 4870 2855 50  0000 L CNN
F 2 "Resistors_ThroughHole:R_Axial_DIN0204_L3.6mm_D1.6mm_P7.62mm_Horizontal" V 4730 2900 50  0001 C CNN
F 3 "~" H 4800 2900 50  0001 C CNN
	1    4800 2900
	1    0    0    -1  
$EndComp
Wire Wire Line
	4800 2750 4800 2700
$Comp
L power:VCC #PWR0111
U 1 1 5C9C939E
P 3500 4750
F 0 "#PWR0111" H 3500 4600 50  0001 C CNN
F 1 "VCC" H 3517 4923 50  0000 C CNN
F 2 "" H 3500 4750 50  0001 C CNN
F 3 "" H 3500 4750 50  0001 C CNN
	1    3500 4750
	1    0    0    -1  
$EndComp
$Comp
L Device:C_Small C3
U 1 1 5C9C9477
P 3500 4900
F 0 "C3" H 3592 4946 50  0000 L CNN
F 1 "C_Small" H 3592 4855 50  0000 L CNN
F 2 "Capacitors_ThroughHole:C_Disc_D3.0mm_W2.0mm_P2.50mm" H 3500 4900 50  0001 C CNN
F 3 "~" H 3500 4900 50  0001 C CNN
	1    3500 4900
	1    0    0    -1  
$EndComp
$Comp
L power:GND #PWR0112
U 1 1 5C9C9504
P 3500 5050
F 0 "#PWR0112" H 3500 4800 50  0001 C CNN
F 1 "GND" H 3505 4877 50  0000 C CNN
F 2 "" H 3500 5050 50  0001 C CNN
F 3 "" H 3500 5050 50  0001 C CNN
	1    3500 5050
	1    0    0    -1  
$EndComp
Wire Wire Line
	3500 5050 3500 5000
Wire Wire Line
	3500 4800 3500 4750
$Comp
L power:VCC #PWR02
U 1 1 5C9CB7F1
P 3100 1750
F 0 "#PWR02" H 3100 1600 50  0001 C CNN
F 1 "VCC" H 3117 1923 50  0000 C CNN
F 2 "" H 3100 1750 50  0001 C CNN
F 3 "" H 3100 1750 50  0001 C CNN
	1    3100 1750
	1    0    0    -1  
$EndComp
Wire Wire Line
	3100 1950 3100 1750
$Comp
L power:GND #PWR03
U 1 1 5C9CCDEF
P 3100 2100
F 0 "#PWR03" H 3100 1850 50  0001 C CNN
F 1 "GND" H 3105 1927 50  0000 C CNN
F 2 "" H 3100 2100 50  0001 C CNN
F 3 "" H 3100 2100 50  0001 C CNN
	1    3100 2100
	1    0    0    -1  
$EndComp
Wire Wire Line
	3100 2050 3100 2100
$Comp
L Connector:Conn_01x04_Female J1
U 1 1 5C9CF18A
P 2300 2050
F 0 "J1" H 2550 2150 50  0000 C CNN
F 1 "Minizedconn" H 2550 2050 50  0000 C CNN
F 2 "Pin_Headers:Pin_Header_Straight_1x04_Pitch2.54mm" H 2300 2050 50  0001 C CNN
F 3 "~" H 2300 2050 50  0001 C CNN
	1    2300 2050
	-1   0    0    -1  
$EndComp
Wire Wire Line
	2500 1950 3100 1950
Wire Wire Line
	2500 2050 3100 2050
Wire Wire Line
	2500 2150 2900 2150
Wire Wire Line
	2900 2150 2900 2600
Text Notes 2550 1950 0    50   ~ 0
VCC
Text Notes 2550 2050 0    50   ~ 0
GND
Text Notes 2550 2150 0    50   ~ 0
Step
Text Notes 2650 3700 0    50   ~ 0
Cap+
Text Notes 2650 3950 0    50   ~ 0
Cap-
Text GLabel 2500 2250 2    50   Input ~ 0
OUT
Wire Wire Line
	4650 3150 4800 3150
Wire Wire Line
	4800 3050 4800 3150
Connection ~ 4800 3150
Text GLabel 5300 3150 2    50   Input ~ 0
OUT
$Comp
L Connector:Screw_Terminal_01x02 J2
U 1 1 5CE58D20
P 2450 3750
F 0 "J2" H 2450 3900 50  0000 C CNN
F 1 "Probe_out" H 2450 3500 50  0000 C CNN
F 2 "Terminal_Blocks:TerminalBlock_bornier-2_P5.08mm" H 2450 3750 50  0001 C CNN
F 3 "~" H 2450 3750 50  0001 C CNN
	1    2450 3750
	-1   0    0    -1  
$EndComp
Wire Wire Line
	2650 3750 2900 3750
Wire Wire Line
	2650 3850 2900 3850
Wire Wire Line
	4800 3150 5300 3150
$Comp
L power:VCC #PWR0103
U 1 1 5CE5C729
P 3150 4750
F 0 "#PWR0103" H 3150 4600 50  0001 C CNN
F 1 "VCC" H 3167 4923 50  0000 C CNN
F 2 "" H 3150 4750 50  0001 C CNN
F 3 "" H 3150 4750 50  0001 C CNN
	1    3150 4750
	1    0    0    -1  
$EndComp
$Comp
L power:VCC #PWR0106
U 1 1 5CE5C754
P 2900 4750
F 0 "#PWR0106" H 2900 4600 50  0001 C CNN
F 1 "VCC" H 2917 4923 50  0000 C CNN
F 2 "" H 2900 4750 50  0001 C CNN
F 3 "" H 2900 4750 50  0001 C CNN
	1    2900 4750
	1    0    0    -1  
$EndComp
$Comp
L power:VCC #PWR?
U 1 1 5CE5C9F0
P 3250 2500
F 0 "#PWR?" H 3250 2350 50  0001 C CNN
F 1 "VCC" H 3267 2673 50  0000 C CNN
F 2 "" H 3250 2500 50  0001 C CNN
F 3 "" H 3250 2500 50  0001 C CNN
	1    3250 2500
	1    0    0    -1  
$EndComp
$EndSCHEMATC
